{
  "name": "fvtt-fragged-kingdom",
  "title": "Fragged Kingdom",
  "description": "Fragged Kingdom system for FoundryVTT",
  "author": "Uberwald",
  "authors": [],
  "url": "https://gitlab.com/iamelodin/fvtt-fragged-kingdom",
  "license": "LICENSE.txt",
  "flags": {},
  "version": "0.3.5",
  "minimumCoreVersion": "0.8.0",
  "compatibleCoreVersion": "9",
  "scripts": [],
  "esmodules": [
    "modules/fragged-kingdom-main.js"
  ],
  "styles": [
    "styles/simple.css"
  ],
  "languages": [
    {
      "lang": "en",
      "name": "English",
      "path": "lang/en.json"
    }
  ],
  "packs": [
    {
      "type": "Item",
      "label": "Skills",
      "name": "skills",
      "path": "./packs/skills.db",
      "system": "fvtt-fragged-kingdom",
      "tags": [
        "skill"
      ],
      "private": false
    }
  ],
  "system": [],
  "dependencies": [],
  "socket": true,
  "manifest": "https://gitlab.com/iamelodin/fvtt-fragged-kingdom/raw/master/system.json",
  "download": "https://gitlab.com/iamelodin/fvtt-fragged-kingdom/-/archive/master/fvtt-fragged-kingdom.zip",
  "protected": false,
  "background": "./images/ui/FK_Welcome_Page.webp",
  "gridDistance": 5,
  "gridUnits": "m",
  "primaryTokenAttribute": "endurance.endurance",
  "secondaryTokenAttribute": "fate.value"
}